https://www.youtube.com/watch?v=ijPvLKlT3R4
https://www.youtube.com/watch?v=PjAHWznLv6g
http://sp4hack.blogspot.com.co/2012/10/hack-this-site-realistic-10.html
http://www.gensale.net/hts-realistic-level-10/
http://www.amitghosh.net/hts-realistic-mission-10-solution/
http://g00l.blogspot.com.co/2009/05/hackthissite-realistic.html
https://www.aldeid.com/wiki/Hackthissite/Realistic/Level10
