https://mrh4sh.github.io/de-ice-s1-120-solution
http://justpentest.blogspot.in/2015/06/de-ice-120a-walkthrough.html
http://rastamouse.me/blog/2013/de-ice-s1-dot-120/
https://blog.g0tmi1k.com/2011/08/de-icenet-v12a-120a-level-1-disk/
https://www.youtube.com/watch?v=bw-Z1d0FPNE
https://www.youtube.com/watch?v=XgcqRphSkoY
https://medium.com/@0x0FFB347/de-ice-s1-120-walkthrough-vulnhub-f89ce697f4ae
http://securenetworkmanagement.com/de-ice-s1-120/
http://www.cyberry.co.uk/vulnhub/de-ice-s1-120/
https://securekite.wordpress.com/2014/05/26/hacking-de-ice-s1-120/
https://pentestwriteups.wordpress.com/2016/12/03/de-ice-s1-120/
https://blog.techorganic.com/2013/12/15/de-ice-hacking-challenge-part-5/
http://hackingandsecurity.blogspot.com/2016/06/de-ices1120-machine.html
