https://github.com/CyrilP/ThisisLegal
https://www.youtube.com/watch?v=G-5WFXeoK0w
https://github.com/shrv/ThisIsLegal/blob/master/README.md
http://juancho056.blogspot.com/2016/01/thisislegal-chanllenge-4-enunciado-beat.html
