https://raw.githubusercontent.com/BirkhoffLee/wechall/master/exploit/No%20Escape/README.md
https://raw.githubusercontent.com/stefanoschrs/wechall/master/Exploit/Exploit%20-%20No%20Escape
https://raw.githubusercontent.com/james9909/PracticeCTF/master/WeChall/No-Escape/Solution.txt
https://raw.githubusercontent.com/mattfeng/ctf-prep/master/wechall/no_escape/code.php
