https://exercism.io/tracks/bash/exercises/word-count/solutions/218a90011d6c41b9abf0a8a9635d08da
https://exercism.io/tracks/c/exercises/word-count/solutions/d0e943156b254e9faea3ba971d669a9d
https://exercism.io/tracks/cfml/exercises/word-count/solutions/46d1b38af0a341faa42bd84d9f2d76fa
https://exercism.io/tracks/clojure/exercises/word-count/solutions/eef42c2592c8454a8086b19f2477ee84
https://exercism.io/tracks/coffeescript/exercises/word-count/solutions/16fbe9c4e6c943aca4f0edde11286da0
https://exercism.io/tracks/common-lisp/exercises/word-count/solutions/cb0e7714743f4247b7df6505c40083e2
https://exercism.io/tracks/cpp/exercises/word-count/solutions/4c82e4faa5b645c39d8d2874f281beea
https://exercism.io/tracks/csharp/exercises/word-count/solutions/8bd3f1348d2e4c238d79782d9efed2ea
https://exercism.io/tracks/dart/exercises/word-count/solutions/6fd1ffeb141d4926b4da9562bd04dc20
https://exercism.io/tracks/python/exercises/word-count/solutions/bfce3e3858664973854a3e0a2cca4f50
