https://raw.githubusercontent.com/siddhism/codemonk/master/greedy/little-jhool-and-his-addiction-2-4.cpp
https://raw.githubusercontent.com/satylogin/HACKEREARTH/master/Little%20Jhool%20and%20his%20addiction-2.py

