https://raw.githubusercontent.com/DionysiosB/CodeForces/master/200-299/219B-SpecialOfferSuperPrice999Bourles.cpp
https://raw.githubusercontent.com/adityagupta1089/Codeforces-Solutions/master/P219B.java
https://raw.githubusercontent.com/changyuheng/codeforces-solutions/master/219b.py
https://codeforces.com/problemset/problem/219/B
https://www.bbsmax.com/A/Ae5Ry42mJQ/
