https://raw.githubusercontent.com/Lintik/CodeFights-Arcade/master/Intro/Smooth%20Sailing/All%20Longest%20Strings/code.cpp
https://raw.githubusercontent.com/Lintik/CodeFights-Arcade/master/Intro/Smooth%20Sailing/All%20Longest%20Strings/code.cs
https://raw.githubusercontent.com/Lintik/CodeFights-Arcade/master/Intro/Smooth%20Sailing/All%20Longest%20Strings/code.java
https://raw.githubusercontent.com/Lintik/CodeFights-Arcade/master/Intro/Smooth%20Sailing/All%20Longest%20Strings/code.js
https://raw.githubusercontent.com/Lintik/CodeFights-Arcade/master/Intro/Smooth%20Sailing/All%20Longest%20Strings/code.py3
