https://raw.githubusercontent.com/GuillermoLopezJr/CodeAbbey/master/Abbey134/main.py
https://raw.githubusercontent.com/Ska89/just-for-fun-codeabbey.com/master/FlyingTextScreensaver.java
https://raw.githubusercontent.com/AlexMckey/CodeAbbey_Scala/master/src/FibonacciSequence.scala
https://raw.githubusercontent.com/JesseClarkND/codeabbey_in_C-NET/master/Flying%20Text%20Screensaver
