https://raw.githubusercontent.com/ArnoldM904/CodeAbbey_Solutions/master/Python/id046-Tic_Tac_Toe.py
https://raw.githubusercontent.com/Chainsawkitten/CodeAbbeyProblems/master/src/Problem%2046/Problem%2046.cpp
https://raw.githubusercontent.com/igor-kutepov/codeabbey/master/src/main/java/com/kutepov/samples/codeabbey/TicTacToe.java
https://raw.githubusercontent.com/jisaacks/ruby-tic-tac-toe/master/lib/ruby-tic-tac-toe.rb
https://raw.githubusercontent.com/trptcolin/tictactoe-clojure/master/run-tests.clj
https://raw.githubusercontent.com/kemiller/tic-tac-toe/master/ocaml/ticTacToe.ml
https://raw.githubusercontent.com/jneander/tic-tac-toe-go/master/main.go
https://raw.githubusercontent.com/ireade/tictactoe/master/script.js
https://raw.githubusercontent.com/trptcolin/tictactoe-scala/master/src/trptcolin/tictactoescala/basegame/Game.scala
https://raw.githubusercontent.com/dom96/tictactoe-rs/master/src/main.rs
https://raw.githubusercontent.com/JesseClarkND/codeabbey_in_C-NET/master/Tic-Tac-Toe
https://gitlab.com/CodeArtisan/codeabbey/raw/master/problem_46/solution.rkt
https://jiaoqiyuan.cn/2019/01/25/Codeabbey%E7%BD%91%E7%AB%99-%E6%B6%89%E5%8F%8A%E7%AE%97%E6%B3%95%E7%9B%B8%E5%85%B3%E7%9A%84%E9%A2%98/#46-Tic-Tac-Toe
