https://exercism.io/tracks/csharp/exercises/difference-of-squares/solutions/3856614509494d8d95f4298e34efd5e8
https://exercism.io/tracks/plsql/exercises/difference-of-squares/solutions/c4ab184b1dae40dba0d90e6d11c4ab91
https://exercism.io/tracks/bash/exercises/difference-of-squares/solutions/6891fd5aa420474085e2f68d86853e7a
https://exercism.io/tracks/c/exercises/difference-of-squares/solutions/7290912e7ff942139fc40b7cfa039e3d
https://exercism.io/tracks/cpp/exercises/difference-of-squares/solutions/dcc892b82d14465f8dca09e92df73658
https://exercism.io/tracks/clojure/exercises/difference-of-squares/solutions/e407f5055e694ae0831b6c6f4adb7978
https://exercism.io/tracks/crystal/exercises/difference-of-squares/solutions/62b290aaabad492b8dd01d0fba79e661
https://exercism.io/tracks/delphi/exercises/difference-of-squares/solutions/1c2d2c59dcdb4f739a4418db85f43f09
https://exercism.io/tracks/elixir/exercises/difference-of-squares/solutions/6413e893ac1c40f7818312fdfe8c9e18
https://exercism.io/tracks/haskell/exercises/difference-of-squares/solutions/a3dbeb25d6714fd287637b3491181936
