https://raw.githubusercontent.com/Rsilnav/Codeabbey/master/53.py
https://raw.githubusercontent.com/igor-kutepov/codeabbey/master/src/main/java/com/kutepov/samples/codeabbey/KingAndQueen.java
https://raw.githubusercontent.com/Chainsawkitten/CodeAbbeyProblems/master/src/Problem%2053/Problem%2053.cpp
https://raw.githubusercontent.com/mmcdon20/code_abbey/master/src/main/scala/Abbey053.scala
https://raw.githubusercontent.com/JesseClarkND/codeabbey_in_C-NET/master/King%20and%20Queen
https://raw.githubusercontent.com/skilled19/sols/master/cl/code-3/hamza772000-63-integer-factorization.vb
https://jiaoqiyuan.cn/2019/01/25/Codeabbey%E7%BD%91%E7%AB%99-%E6%B6%89%E5%8F%8A%E7%AE%97%E6%B3%95%E7%9B%B8%E5%85%B3%E7%9A%84%E9%A2%98/#53-King-and-Queen
