https://raw.githubusercontent.com/ruippeixotog/codeforces/8e709b4118f0f80f35002a76e246244eb5cc529a/src/1091/A.cpp
https://codeforces.com/contest/1091/submission/47727730
https://codeforces.com/contest/1091/submission/47737432
https://codeforces.com/contest/1091/submission/56947458
https://codeforces.com/contest/1091/submission/57429132
https://codeforces.com/contest/1091/submission/47727128
https://codeforces.com/contest/1091/submission/47818957
https://codeforces.com/contest/1091/submission/47728640
https://codeforces.com/contest/1091/submission/47768626
https://codeforces.com/contest/1091/submission/47944766
https://codeforces.com/contest/1091/submission/47733076
