https://raw.githubusercontent.com/ysmolsky/cryptopals-matasano-solutions/master/15/main.go
https://raw.githubusercontent.com/Daeinar/cryptopals/master/src/c15.rs
https://raw.githubusercontent.com/jaybosamiya/cryptopals-solutions/master/set2/15/run.py
https://raw.githubusercontent.com/akalin/cryptopals-python3/master/challenge15.py
https://raw.githubusercontent.com/technion/matasano_challenge/master/set2/chal15/chal15.rb
