https://raw.githubusercontent.com/AkashChandrakar/codeforces-solutions/master/c%2B%2B/58-A-13831059.cpp
https://raw.githubusercontent.com/dwiajik/codeforces/master/58A.py
https://raw.githubusercontent.com/yeicol/CodeForces/master/CF058AChatRoom.java
