https://raw.githubusercontent.com/Daeinar/cryptopals/master/src/c28.rs
https://raw.githubusercontent.com/jaybosamiya/cryptopals-solutions/master/set4/28/run.py
https://raw.githubusercontent.com/jaybosamiya/cryptopals-solutions/master/set4/28/SHA1.py
https://raw.githubusercontent.com/technion/matasano_challenge/master/set4/chal28/chal28.rb
