https://raw.githubusercontent.com/ashishmusani/HackerEarthSolutions/master/chanduAndGF2.java
https://raw.githubusercontent.com/haikentcode/Hackerearth-CodeMonk-Python/master/Sorting/Chandu%20and%20his%20Girlfriend%20Returns.py
https://raw.githubusercontent.com/nitinsinghal94/HackerEarth-Solution/master/Chandu%20and%20his%20Girlfriend%20Returns

