https://raw.githubusercontent.com/sile/euler.rs/master/euler_02/src/problem066.rs
https://raw.githubusercontent.com/smacke/project-euler/master/python/66.py
https://raw.githubusercontent.com/nayuki/Project-Euler-solutions/master/java/p066.java
https://www.mathblog.dk/project-euler-66-diophantine-equation/
https://raw.githubusercontent.com/nayuki/Project-Euler-solutions/blob/master/mathematica/p066.mathematica
