https://raw.githubusercontent.com/adityagupta1089/Codeforces-Solutions/master/P469A.java
https://raw.githubusercontent.com/dwiajik/codeforces/master/469A.py
https://raw.githubusercontent.com/mpfeifer1/Codeforces/master/469a.cpp
https://raw.githubusercontent.com/svanegas/programming_solutions/master/Codeforces/469A%20-%20I%20Wanna%20Be%20the%20Guy/469A.rb
