https://raw.githubusercontent.com/nikai3d/ce-challenges/master/moderate/reverse_groups.c
https://raw.githubusercontent.com/nikai3d/ce-challenges/master/moderate/reverse_groups.hs
https://raw.githubusercontent.com/nikai3d/ce-challenges/master/moderate/reverse_groups.rb
