https://raw.githubusercontent.com/agusmakmun/CodeFights/master/solutions/c%2B%2B/isPermutation.cpp
https://raw.githubusercontent.com/agusmakmun/CodeFights/master/solutions/java/isPermutation.java
https://raw.githubusercontent.com/agusmakmun/CodeFights/master/solutions/javascript/isPermutation.js
https://raw.githubusercontent.com/hoc081098/some-code/master/codesignal-quick-challenge/constructArray/constructArray.kt
https://raw.githubusercontent.com/hoc081098/some-code/master/codesignal-quick-challenge/decodeString/decodeString.rb
https://www.cprogramming.com/challenges/permutesol.html
https://fizzbuzzer.com/permutations-challenge-iterative-solution/
https://www.geeksforgeeks.org/c-program-find-largest-element-array/
https://www.geeksforgeeks.org/find-the-number-of-binary-strings-of-length-n-with-at-least-3-consecutive-1s/
https://www.geeksforgeeks.org/maximum-array-least-twice-elements/
