https://raw.githubusercontent.com/sile/euler.rs/master/euler_03/src/problem076.rs
https://raw.githubusercontent.com/nayuki/Project-Euler-solutions/master/java/p076.java
https://raw.githubusercontent.com/nayuki/Project-Euler-solutions/master/python/p076.py
https://www.mathblog.dk/project-euler-76-one-hundred-sum-integers/
