https://raw.githubusercontent.com/MaskRay/HackerRank/master/arrays-ds.clj
https://raw.githubusercontent.com/ndesormiere/HackerRank/master/Data%20Structures/Arrays%20-%20DS.java
https://raw.githubusercontent.com/ehouarn-perret/EhouarnPerret.Python.HackerRank/master/2%20-%20Data%20Structures/1%20-%20Arrays/1%20-%20Arrays%20-%20DS.py
