https://rundata.wordpress.com/2013/03/25/overthewire-leviathan-wargame-solution-1/
https://jhalon.github.io/over-the-wire-leviathan/
https://www.youtube.com/watch?v=I6Ns7R7paJY&t=346s
http://blog.zairo.kr/entry/OverTheWire-%E2%80%93-Leviathan-Level-1?category=570140
https://raw.githubusercontent.com/luceatnobis/challenges/master/overthewire.org/leviathan/leviathan
https://raw.githubusercontent.com/Lorenyx/OverTheWire-Solutions/master/leviathan/level_1.md
https://cplusperks.com/leviathan/#level1
https://raw.githubusercontent.com/USCGA/writeups/master/overthewire/leviathan/level1/README.md
https://blvckb3vrd.wordpress.com/2015/12/10/overthewire-leviathan-level-1/
https://retrolinuz.wordpress.com/2017/11/16/ctf-overthewire-leviathan/
