https://www.youtube.com/watch?v=Q_UEZGcjMBk
https://alexandervoidstar.wordpress.com/2015/10/10/hackthis-crypt-level-3/
https://www.youtube.com/watch?v=r4E1sV6khdQ
https://www.youtube.com/watch?v=Z9eGojDmqH4
https://www.youtube.com/watch?v=8-pqtDkaA_I
https://www.youtube.com/watch?v=k9oN-5vwVT4
http://khanglambk.blogspot.com/2017/11/ctfhackthis-crypt-level-3.html
