https://raw.githubusercontent.com/zjsxzy/HackerRank/master/Algorithms/Math/Similar%20Pair/main.cpp
https://raw.githubusercontent.com/gouthampradhan/hackerrank/master/hackerrank/src/java/SimilarPair.java

