https://raw.githubusercontent.com/ysmolsky/cryptopals-matasano-solutions/master/07/main.go
https://raw.githubusercontent.com/Daeinar/cryptopals/master/src/c07.rs
https://raw.githubusercontent.com/jaybosamiya/cryptopals-solutions/master/set1/7/run.py
https://raw.githubusercontent.com/akalin/cryptopals-python3/master/challenge7.py
https://raw.githubusercontent.com/technion/matasano_challenge/master/set1/chal7/chal7.rb
