https://www.youtube.com/watch?v=mHcGQuuUUl4
http://null-byte.wonderhowto.com/news/goodnight-byte-hackthissite-realistic-1-real-hacking-simulations-0132921/
https://www.youtube.com/watch?v=PWBcrOrumsA
https://hackthissitesoltution.wordpress.com/2012/03/07/hts-realistic-mission-1/
http://www.amitghosh.net/hts-realistic-mission-1-solution/
https://www.aldeid.com/wiki/Hackthissite/Realistic/Level1
http://www.businessinsider.com/goodnight-byte-hackthissite-realistic-1-real-hacking-simulations-2012-1
https://raw.githubusercontent.com/tiancode/learn-hacking/master/hackthissite/Realistic.md
https://www.youtube.com/watch?v=heTeRD0OFps
