https://raw.githubusercontent.com/nayuki/Project-Euler-solutions/master/java/p046.java
https://raw.githubusercontent.com/sile/euler.rs/master/euler_01/src/problem046.rs
https://www.mathblog.dk/project-euler-46-odd-number-prime-square/
https://raw.githubusercontent.com/zimpha/competitive-programming/master/project-euler/volume01/46.cc
https://raw.githubusercontent.com/nayuki/Project-Euler-solutions/blob/master/haskell/p046.hs
