https://raw.githubusercontent.com/mpillar/codeeval/master/1-moderate/pass-triangle/Main.java
https://raw.githubusercontent.com/pascal-bourut/codeeval-challenges/master/moderate/89%20-%20Pass%20Triangle/89.js
https://raw.githubusercontent.com/pascal-bourut/codeeval-challenges/master/moderate/89%20-%20Pass%20Triangle/89.php
https://raw.githubusercontent.com/nikai3d/ce-challenges/master/moderate/pass_triangle.go
https://raw.githubusercontent.com/ferhatelmas/algo/master/codeEval/medium/pass_triangle.py
https://raw.githubusercontent.com/nikai3d/ce-challenges/master/moderate/pass_triangle.c
https://raw.githubusercontent.com/nikai3d/ce-challenges/master/moderate/pass_triangle.hs
https://raw.githubusercontent.com/nikai3d/ce-challenges/master/moderate/pass_triangle.lua
https://raw.githubusercontent.com/nikai3d/ce-challenges/master/moderate/pass_triangle.pl
https://raw.githubusercontent.com/nikai3d/ce-challenges/master/moderate/pass_triangle.rb
