https://raw.githubusercontent.com/ysmolsky/cryptopals-matasano-solutions/master/13/main.go
https://raw.githubusercontent.com/Daeinar/cryptopals/master/src/c13.rs
https://raw.githubusercontent.com/jaybosamiya/cryptopals-solutions/master/set2/13/run.py
https://raw.githubusercontent.com/akalin/cryptopals-python3/master/challenge13.py
https://raw.githubusercontent.com/technion/matasano_challenge/master/set2/chal13/chal13.rb
