https://raw.githubusercontent.com/mpillar/codeeval/master/2-hard/prefix-expressions/main.py
https://raw.githubusercontent.com/Brianjr0428/CodeEval/master/Hard/Prefix%20expressions/prefix.java
https://raw.githubusercontent.com/antarr/CodeEval-Solutions/master/hard/prefixexpression.rb
https://stackoverflow.com/questions/33364722/prefix-expression-evaluation-in-c-codeeval
