https://www.youtube.com/watch?v=S3O-fBhCU9Q
https://www.youtube.com/watch?v=RDs0MphkD4Y
https://shobi.in/hax-tor-hu-warmup-levels-capture-the-flag/
https://www.youtube.com/watch?v=z2AfaU9iyr0
http://urity2.rssing.com/chan-17442381/all_p1.html
https://weekly-geekly.github.io/articles/127147/index.html
