https://raw.githubusercontent.com/ZLester/Coderbyte-Solutions/master/Medium/03%20-%20Prime%20Mover.js
https://raw.githubusercontent.com/designerGenes/CoderbyteInSwift/master/PrimeMover/PrimeMover.playground/Contents.swift
https://raw.githubusercontent.com/bolducp/coderbyte/master/medium/03_prime_mover.py
