https://alexandervoidstar.wordpress.com/2015/07/19/hackthis-main-level-10/
https://www.youtube.com/watch?v=GEm4eMJIlOk
https://www.youtube.com/watch?v=B3h8uA7Ccgk
https://www.youtube.com/watch?v=pjK5-eLjlYA
https://www.youtube.com/watch?v=NynX_D-a5Ek
https://www.youtube.com/watch?v=jpyfyjqkBS4
https://www.youtube.com/watch?v=nb_a-55jefE
http://sjbuzz.net/video/watch/vid01jpyfyjqkBS4
https://www.youtube.com/watch?v=G7O8Zh9dPbk&t=491s
https://www.youtube.com/watch?v=oJ6xPCo0kKo
https://raw.githubusercontent.com/luceatnobis/challenges/master/hackthis.co.uk/main/10/solution
