https://raw.githubusercontent.com/nayuki/Project-Euler-solutions/master/java/p024.java
https://raw.githubusercontent.com/sile/euler.rs/master/euler_00/src/problem024.rs
https://raw.githubusercontent.com/kdungs/euler/master/024/euler_24.py
https://www.mathblog.dk/project-euler-24-millionth-lexicographic-permutation/
https://raw.githubusercontent.com/zimpha/competitive-programming/master/project-euler/volume01/24.cc
https://raw.githubusercontent.com/nayuki/Project-Euler-solutions/blob/master/haskell/p024.hs
