https://www.youtube.com/watch?v=d4nNumvVEwI
https://www.youtube.com/watch?v=7v23o9Yvlks
https://odysseasnotepad.wordpress.com/2014/01/13/hack-this-site-basic-missions-8-11/
http://sp4hack.blogspot.com.co/2012/09/hack-this-site-basic-8.html
http://crackandsecure.blogspot.com.co/2011/04/hack-this-site-hts-basic-8.html
http://anthonyvoza.blogspot.com.co/2013/09/hack-this-site-basic-mission-8.html
http://www.amitghosh.net/hts-basic-mission-8-solution/
https://0x1gab.com/2016/06/14/hackthissite-basic-challenge-level-8-9/
https://es.slideshare.net/ciskosv/hackthissite-3402645
http://blog.abhishekg.com/2011/12/basic-8-ssi/
https://github.com/DivyanshuSahu/HackThisSite/blob/master/Basic/files/8solved.png
https://www.aldeid.com/wiki/Hackthissite/Basic/Level8
http://truemiller.com/2017/09/hack-this-site-all-basic-solutions/#basic_8
https://github.com/attilathedud/HackThisSite/tree/master/Basic
