https://raw.githubusercontent.com/ThaWeatherman/eg_solutions/master/crypto/2.txt
https://raw.githubusercontent.com/iandioch/solutions/master/enigmagroup/cryptography/2/solution.md
https://raw.githubusercontent.com/djcomidi/enigmagroup/master/decryptions/cryptography02.py
