https://raw.githubusercontent.com/codejoydo/codeforces/master/231a.c
https://raw.githubusercontent.com/fuwutu/CodeForces/master/231A%20-%20Team.cpp
https://raw.githubusercontent.com/yeicol/CodeForces/master/CF231ATeam.java
https://raw.githubusercontent.com/changyuheng/codeforces-solutions/master/231a.py
