35 23
11111011111011111110111011101110101
00101010100000100000101010001000101
11101010101111101011101011111011111
10001010001000001010100010100000001
10101110111111111110101110111011111
00100010101000100000100010000010000
11101111101110101110101111111011111
10100000000000001000100010000000001
10101111111110111111111110111111101
10001010101010001010100000000000101
11101010101010111010111111111111111
00101000000000101000100000100000000
10111111101110101110111010111111101
10000010000010000010000010000000101
10101011101111101111111111111110111
10101000101010100000100000000010000
11101111101010111111101011111110111
00100000101000000000101010000010100
11101111111010111011101110111110111
00100000101010100000001000000010001
10111111101011111011111110111111111
10100000100010001000101000000000001
11111110101110111111101111111110111
