http://hackinblood.lasermark.co/command-injection-root-me/
https://www.youtube.com/watch?v=-HCl14dbTTg&list=PLIl374mqgbkypWnkwOukP-kA6rnrf-xpx&index=5
https://codeasy.nl/hacking/root-me-antwoorden/command-injection-filter-bypass/
https://jeonyoungsin.tistory.com/197
