https://raw.githubusercontent.com/rrylee/HackerRank-Solution/master/Algorithm/Implementation/13-acm-icpc-team.c
https://raw.githubusercontent.com/m3verma/Hackerrank-Solutions/master/ACM%20ICPC%20Team.cpp
https://raw.githubusercontent.com/RyanFehr/HackerRank/master/Algorithms/Implementation/ACM%20ICPC%20Team/Solution.java
https://raw.githubusercontent.com/alessandrobardini/HackerRank-Solutions/master/All%20Tracks/Core%20CS/Algorithms/Implementation/ACM%20ICPC%20Team/Solution.py
https://raw.githubusercontent.com/andrewrk/hackerrank/master/acm-icpc-team/main.rs
