https://leetcode.com/problems/jewels-and-stones/discuss/356619/Java-Solution.
https://leetcode.com/problems/jewels-and-stones/discuss/356169/Python-12ms-shortest
https://leetcode.com/problems/jewels-and-stones/discuss/355527/Javascript-ES6-converting-strings-to-array-52ms-faster-than-92-memory-34.4mb
https://leetcode.com/problems/jewels-and-stones/discuss/355249/C%2B%2B-100-fast
