https://leetcode.com/problems/defanging-an-ip-address/discuss/357079/C%2B%2B-0ms-Runtime-easy-solution
https://leetcode.com/problems/defanging-an-ip-address/discuss/356995/Python-simple-one-line-solution
https://leetcode.com/problems/defanging-an-ip-address/discuss/356841/StrinBuilder-solution-in-Java-0ms-and-100-faster
https://leetcode.com/problems/defanging-an-ip-address/discuss/356792/Javascript-with-Regex-97-and-100
