https://github.com/bakerhamilton/Coderbyte-solutions/raw/master/FirstReverse.java
https://github.com/bolducp/coderbyte/raw/master/easy/01_first_reverse.py
https://raw.githubusercontent.com/ZLester/Coderbyte-Solutions/master/Easy/01%20-%20First%20Reverse.js
https://raw.githubusercontent.com/Nigelmnz/CoderbyteSolutions/master/01-FirstReverse/1.hs
https://raw.githubusercontent.com/aesee/cpp-challenges/master/FirstReverse.cpp
https://raw.githubusercontent.com/brbcoding/Coderbyte/master/Easy/FirstReverse.php
https://raw.githubusercontent.com/Samleo8/CoderByte/master/Easy/FirstReverse.c
https://raw.githubusercontent.com/juyongsim/coderbyte/master/FirstReverse.rb
