https://raw.githubusercontent.com/PlatyPew/picoctf-2018-writeup/master/Binary%20Exploitation/buffer%20overflow%201/README.md
https://www.youtube.com/watch?v=hB_oLDjhBIQ
https://ehsan.dev/pico2014/binary_exploitation/overflow1.html
https://medium.com/@isharaabeythissa/buffer-overflow-1-picoctf-done-by-ishara-abeythissa-2f85025956f0
https://raw.githubusercontent.com/Dvd848/CTFs/master/2018_picoCTF/buffer%20overflow%201.md
