https://www.youtube.com/watch?v=rs75y2qPonc
https://www.hackthebox.eu/home/machines/writeup/134
https://fasetto.github.io/hack-the-box-canape/
https://ironhackers.es/en/writeups/writeup-canape-hackthebox-2/
https://medium.com/ctf-writeups/canape-write-up-htb-exploiting-cpickle-bad-pip-permissions-d04f101e0228
https://epi052.gitlab.io/notes-to-self/blog/2018-09-13-hack-the-box-canape/
https://zineausa.com/blog/2018/10/hackthebox-canape-writeup/
https://medium.com/@DRX_Sicher/walkthrough-homer-simpsons-b91db12a3ba
https://www.secjuice.com/ctf-walkthrough-canape-hackthebox/
https://www.youtube.com/watch?v=eUnzNT5T8_Q
http://www.hackingarticles.in/hack-the-box-challenge-canape-walkthrough/
https://spz.io/2018/09/16/canape-box-writeup-walkthrough-htb-hackthebox/
https://medium.com/@chennylmf/hackthebox-walkthrough-canape-85a628bd6f24
https://www.cipherred.com/canape/
https://www.absolomb.com/2018-09-15-HackTheBox-Canape/
