https://exercism.io/tracks/java/exercises/resistor-color/solutions/34152692516642a89a2e5e5edcd7f7e2
https://exercism.io/tracks/c/exercises/resistor-color/solutions/02b029ecf9894944ac2a17387d907a63
https://exercism.io/tracks/csharp/exercises/resistor-color/solutions/8d5ab4d6bd6d4f2396700c6375e80775
https://exercism.io/tracks/javascript/exercises/resistor-color/solutions/a93d16bb39a0462d8415776b229aa35d
https://exercism.io/tracks/python/exercises/resistor-color/solutions/60455cfd083f457b8937402494e1f17d
https://exercism.io/tracks/ruby/exercises/resistor-color/solutions/f5d79078bd11452b9a980807d1351293
https://exercism.io/tracks/d/exercises/resistor-color/solutions/bf1fdc42e7104addb14607b8bc5c4854
https://exercism.io/tracks/dart/exercises/resistor-color/solutions/5f251c7961a441ceadff7cb98c840f78
https://exercism.io/tracks/java/exercises/resistor-color/solutions/86e357b1f9f64797890f2a81185f5fa7
https://exercism.io/tracks/groovy/exercises/resistor-color/solutions/de89fd795d0d49f59d9f911854d528c8
https://exercism.io/tracks/bash/exercises/resistor-color-duo/solutions/c417e6a3af004918a153ff3fb26ed160
https://exercism.io/tracks/crystal/exercises/resistor-color/solutions/65c1b74b29f1435392103731a0af8592
https://exercism.io/tracks/dart/exercises/resistor-color/solutions/b93ae6f8272c473a97e1cc7947bb217c
https://exercism.io/tracks/delphi/exercises/resistor-color/solutions/e0f57ba71c2349a7bd08d8bcd2c8d91d
https://exercism.io/tracks/groovy/exercises/resistor-color/solutions/9c1c9d58b91c4fcb9680ccf2cabd1957
https://exercism.io/tracks/haskell/exercises/resistor-color-duo/solutions/433b1d2f314844f0bb4d65c80e71d82f
https://exercism.io/tracks/nim/exercises/resistor-color/solutions/786273dd72d24b6380461e0688c9e4e5
https://exercism.io/tracks/x86-64-assembly/exercises/resistor-color/solutions/ce07a5a0b0f040fa8536a9e889f41b1b
