https://raw.githubusercontent.com/nikzsaz/Codeforces-solution/master/127B-CanvasFrameImpoRevision.cpp
https://raw.githubusercontent.com/changyuheng/codeforces-solutions/master/127b.py
https://raw.githubusercontent.com/mkirsche/Codeforces/master/127-B/127-B-844102.java
